Estimate Totals of Structural Survey — se_total • chensus
…
  gender
)
#> # A tibble: 2 × 9
#>   gender   occ      total    vhat stand_dev       ci ci_per       ci_l      ci_u
#>   <fct>  <int>      <dbl>   <dbl>     <dbl>    <dbl>  <dbl>      <dbl>     <dbl>
#> 1 Female  5079 161922446. 7.82e12  2795884. 5479833.   3.38 156442613.    1.67e8
#> 2 Male    4892 154558598. 7.90e12  2810039. 5507576.   3.56 149051022.    1.60e8
# Multiple grouping variables
se_total(
  data = nhanes,
  strata = strata,
  weight = weights,
  gender, marital_status, birth_country
)
#> # A tibble: 33 × 11
#>    gender marital_status     birth_country   occ  total    vhat stand_dev     ci
#>    <fct>  <fct>              <fct>         <int>  <dbl>   <dbl>     <dbl>  <dbl>
#>  1 Female Missing            US             1969 3.82e7 1.05e12  1026695. 2.01e6
#>  2 Female Missing            Other           137 1.97e6 3.52e10   187669. 3.68e5
#>  3 Female Missing            Missing           1 1.80e4 3.23e 8    17984. 3.52e4
#>  4 Female Married            US              796 5.02e7 4.82e12  2196586. 4.31e6
#>  5 Female Married            Other           562 1.22e7 3.56e11   596967. 1.17e6
#>  6 Female Never married      US              413 1.70e7 1.06e12  1030543. 2.02e6
#>  7 Female Never married      Other           125 2.82e6 7.79e10   279046. 5.47e5
#>  8 Female Divorced           US              260 1.16e7 8.98e11   947386. 1.86e6
#>  9 Female Divorced           Other           108 2.25e6 7.81e10   279466. 5.48e5
#> 10 Female Living with partn… US              183 8.95e6 6.52e11   807522. 1.58e6
#> # ℹ 23 more rows
#> # ℹ 3 more variables: ci_per <dbl>, ci_l <dbl>, ci_u <dbl>
# Programmatic use and quoted variables
v <- c("gender", "marital_status", "birth_country")
se_total(
  nhanes,
  weight = "weights",
  strata = "strata",
  !!!rlang::syms(v)
)
#> # A tibble: 33 × 11
#>    gender marital_status     birth_country   occ  total    vhat stand_dev     ci
#>    <fct>  <fct>              <fct>         <int>  <dbl>   <dbl>     <dbl>  <dbl>
#>  1 Female Missing            US             1969 3.82e7 1.05e12  1026695. 2.01e6
#>  2 Female Missing            Other           137 1.97e6 3.52e10   187669. 3.68e5
#>  3 Female Missing            Missing           1 1.80e4 3.23e 8    17984. 3.52e4
#>  4 Female Married            US              796 5.02e7 4.82e12  2196586. 4.31e6
#>  5 Female Married            Other           562 1.22e7 3.56e11   596967. 1.17e6
#>  6 Female Never married      US              413 1.70e7 1.06e12  1030543. 2.02e6
#>  7 Female Never married      Other           125 2.82e6 7.79e10   279046. 5.47e5
#>  8 Female Divorced           US              260 1.16e7 8.98e11   947386. 1.86e6
#>  9 Female Divorced           Other           108 2.25e6 7.81e10   279466. 5.48e5
#> 10 Female Living with partn… US              183 8.95e6 6.52e11   807522. 1.58e6
#> # ℹ 23 more rows
#> # ℹ 3 more variables: ci_per <dbl>, ci_l <dbl>, ci_u <dbl>
…
