chensus • chensus
…
results <- nhanes |>
  se_total(
    strata = strata,
    weight = weights,
    gender,
    birth_country,
    interview_lang,
    edu_level
  )
results |>
  filter(occ < 60) |>
  fso_flag_mask() |>
  select(gender, birth_country, interview_lang, occ, total, ci, obs_status)
#> # A tibble: 26 × 7
#>    gender birth_country interview_lang   occ    total      ci obs_status        
#>    <chr>  <chr>         <chr>          <int>    <dbl>   <dbl> <chr>             
#>  1 Female Missing       English           NA      NA      NA  Kein Schätzwert (…
#>  2 Female Missing       Spanish           NA      NA      NA  Kein Schätzwert (…
#>  3 Female Other         English           57 1098021. 301680. Schätzwert verläs…
#>  4 Female Other         English           41  883410. 287543. Schätzwert beding…
#>  5 Female Other         Spanish           45  673772. 217372. Schätzwert beding…
#>  6 Female Other         Spanish           NA      NA      NA  Kein Schätzwert (…
#>  7 Female Other         Spanish           18  310672. 154623. Schätzwert beding…
#>  8 Female US            English           14  403508. 277121. Schätzwert beding…
#>  9 Female US            Spanish           21  258146. 114605. Schätzwert beding…
#> 10 Female US            Spanish           13  208119. 116775. Schätzwert beding…
#> # ℹ 16 more rows
…
